Copyright 1986-2019 Xilinx, Inc. All Rights Reserved.
-----------------------------------------------------------------------------------------------
| Tool Version : Vivado v.2019.2 (win64) Build 2708876 Wed Nov  6 21:40:23 MST 2019
| Date         : Mon Nov  1 21:12:20 2021
| Host         : jitopc running 64-bit major release  (build 9200)
| Command      : report_control_sets -verbose -file system_top_wrapper_control_sets_placed.rpt
| Design       : system_top_wrapper
| Device       : xc7z020
-----------------------------------------------------------------------------------------------

Control Set Information

Table of Contents
-----------------
1. Summary
2. Histogram
3. Flip-Flop Distribution
4. Detailed Control Set Information

1. Summary
----------

+----------------------------------------------------------+-------+
|                          Status                          | Count |
+----------------------------------------------------------+-------+
| Total control sets                                       |   104 |
|    Minimum number of control sets                        |   104 |
|    Addition due to synthesis replication                 |     0 |
|    Addition due to physical synthesis replication        |     0 |
| Unused register locations in slices containing registers |   219 |
+----------------------------------------------------------+-------+
* Control sets can be merged at opt_design using control_set_merge or merge_equivalent_drivers
** Run report_qor_suggestions for automated merging and remapping suggestions


2. Histogram
------------

+--------------------+-------+
|       Fanout       | Count |
+--------------------+-------+
| Total control sets |   104 |
| >= 0 to < 4        |     5 |
| >= 4 to < 6        |     9 |
| >= 6 to < 8        |     4 |
| >= 8 to < 10       |     6 |
| >= 10 to < 12      |     1 |
| >= 12 to < 14      |     8 |
| >= 14 to < 16      |    13 |
| >= 16              |    58 |
+--------------------+-------+
* Control sets can be remapped at either synth_design or opt_design


3. Flip-Flop Distribution
-------------------------

+--------------+-----------------------+------------------------+-----------------+--------------+
| Clock Enable | Synchronous Set/Reset | Asynchronous Set/Reset | Total Registers | Total Slices |
+--------------+-----------------------+------------------------+-----------------+--------------+
| No           | No                    | No                     |             619 |          146 |
| No           | No                    | Yes                    |              54 |           20 |
| No           | Yes                   | No                     |             178 |           72 |
| Yes          | No                    | No                     |             678 |          142 |
| Yes          | No                    | Yes                    |             837 |          229 |
| Yes          | Yes                   | No                     |             807 |          221 |
+--------------+-----------------------+------------------------+-----------------+--------------+


4. Detailed Control Set Information
-----------------------------------

+---------------------------------------+---------------------------------------------------------------------------------------------------------------------------------------------------------------------------------------------+-------------------------------------------------------------------------------------------------------------------------------------------+------------------+----------------+
|              Clock Signal             |                                                                                        Enable Signal                                                                                        |                                                              Set/Reset Signal                                                             | Slice Load Count | Bel Load Count |
+---------------------------------------+---------------------------------------------------------------------------------------------------------------------------------------------------------------------------------------------+-------------------------------------------------------------------------------------------------------------------------------------------+------------------+----------------+
|  system_top_i/clk_wiz_0/inst/clk_out1 |                                                                                                                                                                                             | system_top_i/I2C_ip_0/U0/u_I2C_ADAU1761_axi_lite_inst/u_I2C_ADAU1761_axi_lite_module_inst/AR[0]                                           |                1 |              2 |
|  system_top_i/clk_wiz_0/inst/clk_out1 | system_top_i/Interconnect_IP/s00_couplers/auto_pc/inst/gen_axilite.gen_b2s_conv.axilite_b2s/WR.b_channel_0/bid_fifo_0/bresp_push                                                            |                                                                                                                                           |                1 |              2 |
|  system_top_i/clk_wiz_0/inst/clk_out3 | system_top_i/Audio_Fil_ip_0/U0/u_Audio_Fil_ip_axi4_stream_master_inst/u_Audio_Fil_ip_fifo_TLAST_OUT_inst/u_Audio_Fil_ip_fifo_TLAST_OUT_classic_ram_singlebit/wr_en                          |                                                                                                                                           |                1 |              2 |
|  system_top_i/clk_wiz_0/inst/clk_out1 | system_top_i/I2S_IP_0/U0/u_I2S_ADAU1761_axi4_stream_master_inst/u_I2S_ADAU1761_fifo_TLAST_inst/u_I2S_ADAU1761_fifo_TLAST_classic_inst/u_I2S_ADAU1761_fifo_TLAST_classic_ram_singlebit/wr_en |                                                                                                                                           |                1 |              2 |
|  system_top_i/clk_wiz_0/inst/clk_out1 | system_top_i/Interconnect_IP/m02_couplers/auto_cc/inst/gen_clock_conv.gen_async_lite_conv.clock_conv_lite_resp_b/handshake/dest_hsdata_en                                                   |                                                                                                                                           |                1 |              2 |
|  system_top_i/clk_wiz_0/inst/clk_out3 |                                                                                                                                                                                             | system_top_i/reset_100MHz/U0/EXT_LPF/lpf_int                                                                                              |                3 |              4 |
|  system_top_i/clk_wiz_0/inst/clk_out1 |                                                                                                                                                                                             | system_top_i/Interconnect_IP/s00_couplers/auto_pc/inst/gen_axilite.gen_b2s_conv.axilite_b2s/SI_REG/aw.aw_pipe/aresetn_d_reg[0]_0          |                3 |              4 |
|  system_top_i/clk_wiz_0/inst/clk_out1 |                                                                                                                                                                                             | system_top_i/Interconnect_IP/s00_couplers/auto_pc/inst/gen_axilite.gen_b2s_conv.axilite_b2s/SI_REG/ar.ar_pipe/aresetn_d_reg[1]_inv_0      |                4 |              4 |
|  system_top_i/clk_wiz_0/inst/clk_out1 | system_top_i/I2C_ip_0/U0/u_I2C_ADAU1761_dut_inst/u_I2C_ADAU1761_src_I2C_ADAU1761/u_i2c_cfg/is_i2c_cfg                                                                                       | system_top_i/I2C_ip_0/U0/u_I2C_ADAU1761_axi_lite_inst/u_I2C_ADAU1761_axi_lite_module_inst/AR[0]                                           |                3 |              4 |
|  system_top_i/clk_wiz_0/inst/clk_out1 | system_top_i/Interconnect_IP/s00_couplers/auto_pc/inst/gen_axilite.gen_b2s_conv.axilite_b2s/RD.r_channel_0/transaction_fifo_0/E[0]                                                          | system_top_i/Interconnect_IP/s00_couplers/auto_pc/inst/gen_axilite.gen_b2s_conv.axilite_b2s/areset_d1                                     |                1 |              5 |
|  system_top_i/clk_wiz_0/inst/clk_out1 | system_top_i/I2C_ip_0/U0/u_I2C_ADAU1761_dut_inst/u_I2C_ADAU1761_src_I2C_ADAU1761/u_I2C_MasterController/u_i2c_mstr/is_i2c_mstr                                                              | system_top_i/I2C_ip_0/U0/u_I2C_ADAU1761_axi_lite_inst/u_I2C_ADAU1761_axi_lite_module_inst/AR[0]                                           |                3 |              5 |
|  system_top_i/clk_wiz_0/inst/clk_out1 |                                                                                                                                                                                             | system_top_i/reset_50MHz/U0/EXT_LPF/lpf_int                                                                                               |                3 |              5 |
|  system_top_i/clk_wiz_0/inst/clk_out3 |                                                                                                                                                                                             | system_top_i/Audio_Fil_ip_0/U0/u_Audio_Fil_ip_axi_lite_inst/u_Audio_Fil_ip_axi_lite_module_inst/reset                                     |                2 |              5 |
|  system_top_i/clk_wiz_0/inst/clk_out1 | system_top_i/Interconnect_IP/s00_couplers/auto_pc/inst/gen_axilite.gen_b2s_conv.axilite_b2s/RD.r_channel_0/transaction_fifo_0/cnt_read[4]_i_1__0_n_0                                        | system_top_i/Interconnect_IP/s00_couplers/auto_pc/inst/gen_axilite.gen_b2s_conv.axilite_b2s/areset_d1                                     |                1 |              5 |
|  system_top_i/clk_wiz_0/inst/clk_out1 |                                                                                                                                                                                             | system_top_i/I2S_IP_0/U0/u_I2S_ADAU1761_axi_lite_inst/u_I2S_ADAU1761_axi_lite_module_inst/reset                                           |                3 |              6 |
|  system_top_i/clk_wiz_0/inst/clk_out1 | system_top_i/reset_50MHz/U0/SEQ/seq_cnt_en                                                                                                                                                  | system_top_i/reset_50MHz/U0/SEQ/SEQ_COUNTER/clear                                                                                         |                1 |              6 |
|  system_top_i/clk_wiz_0/inst/clk_out3 | system_top_i/reset_100MHz/U0/SEQ/seq_cnt_en                                                                                                                                                 | system_top_i/reset_100MHz/U0/SEQ/SEQ_COUNTER/clear                                                                                        |                1 |              6 |
|  system_top_i/clk_wiz_0/inst/clk_out1 | system_top_i/I2C_ip_0/U0/u_I2C_ADAU1761_axi_lite_inst/u_I2C_ADAU1761_addr_decoder_inst/write_axi_enable                                                                                     | system_top_i/I2C_ip_0/U0/u_I2C_ADAU1761_axi_lite_inst/u_I2C_ADAU1761_axi_lite_module_inst/AR[0]                                           |                2 |              7 |
|  system_top_i/clk_wiz_0/inst/clk_out1 |                                                                                                                                                                                             | system_top_i/I2C_ip_0/U0/u_I2C_ADAU1761_axi_lite_inst/u_I2C_ADAU1761_axi_lite_module_inst/reset                                           |                4 |              8 |
|  system_top_i/clk_wiz_0/inst/clk_out1 | system_top_i/Interconnect_IP/s00_couplers/auto_pc/inst/gen_axilite.gen_b2s_conv.axilite_b2s/WR.b_channel_0/mhandshake_r                                                                     | system_top_i/Interconnect_IP/s00_couplers/auto_pc/inst/gen_axilite.gen_b2s_conv.axilite_b2s/WR.b_channel_0/bid_fifo_0/SR[0]               |                3 |              8 |
|  system_top_i/clk_wiz_0/inst/clk_out1 | system_top_i/I2C_ip_0/U0/u_I2C_ADAU1761_dut_inst/u_I2C_ADAU1761_src_I2C_ADAU1761/u_I2C_MasterController/u_i2c_mstr/bit_cnt_0                                                                | system_top_i/I2C_ip_0/U0/u_I2C_ADAU1761_axi_lite_inst/u_I2C_ADAU1761_axi_lite_module_inst/AR[0]                                           |                5 |              8 |
|  system_top_i/clk_wiz_0/inst/clk_out3 | system_top_i/Audio_Fil_ip_0/U0/u_Audio_Fil_ip_axi_lite_inst/u_Audio_Fil_ip_axi_lite_module_inst/wr_enb_1_reg_0[0]                                                                           | system_top_i/Audio_Fil_ip_0/U0/u_Audio_Fil_ip_reset_sync_inst/reset                                                                       |                1 |              8 |
|  system_top_i/clk_wiz_0/inst/clk_out1 | system_top_i/I2C_ip_0/U0/u_I2C_ADAU1761_dut_inst/u_I2C_ADAU1761_src_I2C_ADAU1761/u_i2c_cfg/byte_cnt_rd                                                                                      | system_top_i/I2C_ip_0/U0/u_I2C_ADAU1761_axi_lite_inst/u_I2C_ADAU1761_axi_lite_module_inst/AR[0]                                           |                3 |              8 |
|  system_top_i/clk_wiz_0/inst/clk_out1 | system_top_i/I2C_ip_0/U0/u_I2C_ADAU1761_dut_inst/u_I2C_ADAU1761_src_I2C_ADAU1761/u_i2c_cfg/inc_in                                                                                           | system_top_i/I2C_ip_0/U0/u_I2C_ADAU1761_axi_lite_inst/u_I2C_ADAU1761_axi_lite_module_inst/AR[0]                                           |                3 |              8 |
|  system_top_i/clk_wiz_0/inst/clk_out1 |                                                                                                                                                                                             | system_top_i/Interconnect_IP/s00_couplers/auto_pc/inst/gen_axilite.gen_b2s_conv.axilite_b2s/areset_d1                                     |                4 |             10 |
|  system_top_i/clk_wiz_0/inst/clk_out1 | system_top_i/Interconnect_IP/s00_couplers/auto_pc/inst/gen_axilite.gen_b2s_conv.axilite_b2s/WR.aw_channel_0/cmd_translator_0/incr_cmd_0/axaddr_incr[11]_i_1_n_0                             |                                                                                                                                           |                4 |             12 |
|  system_top_i/clk_wiz_0/inst/clk_out1 | system_top_i/Interconnect_IP/s00_couplers/auto_pc/inst/gen_axilite.gen_b2s_conv.axilite_b2s/RD.ar_channel_0/ar_cmd_fsm_0/sel_first_reg[0]                                                   |                                                                                                                                           |                2 |             12 |
|  system_top_i/clk_wiz_0/inst/clk_out1 |                                                                                                                                                                                             | system_top_i/I2S_to_DUT/inst/gen_fifo.xpm_fifo_axis_inst/xpm_fifo_base_inst/xpm_fifo_rst_inst/wrst_busy                                   |                6 |             12 |
|  system_top_i/clk_wiz_0/inst/clk_out1 | system_top_i/Interconnect_IP/s00_couplers/auto_pc/inst/gen_axilite.gen_b2s_conv.axilite_b2s/RD.ar_channel_0/ar_cmd_fsm_0/FSM_sequential_state_reg[0]_0[0]                                   |                                                                                                                                           |                5 |             12 |
|  system_top_i/clk_wiz_0/inst/clk_out3 |                                                                                                                                                                                             | system_top_i/DUT_to_I2S/inst/gen_fifo.xpm_fifo_axis_inst/xpm_fifo_base_inst/xpm_fifo_rst_inst/wrst_busy                                   |                6 |             12 |
|  system_top_i/clk_wiz_0/inst/clk_out1 | system_top_i/Interconnect_IP/s00_couplers/auto_pc/inst/gen_axilite.gen_b2s_conv.axilite_b2s/WR.aw_channel_0/aw_cmd_fsm_0/state_reg[1]_3[0]                                                  |                                                                                                                                           |                4 |             12 |
|  system_top_i/clk_wiz_0/inst/clk_out1 |                                                                                                                                                                                             | system_top_i/Interconnect_IP/xbar/inst/gen_sasd.crossbar_sasd_0/addr_arbiter_inst/SR[0]                                                   |                5 |             13 |
|  system_top_i/clk_wiz_0/inst/clk_out1 | system_top_i/Interconnect_IP/s00_couplers/auto_pc/inst/gen_axilite.gen_b2s_conv.axilite_b2s/RD.r_channel_0/r_push_r                                                                         |                                                                                                                                           |                4 |             13 |
|  system_top_i/clk_wiz_0/inst/clk_out1 | system_top_i/Interconnect_IP/m02_couplers/auto_cc/inst/gen_clock_conv.gen_async_lite_conv.clock_conv_lite_fwd_aw/handshake/p_0_in                                                           |                                                                                                                                           |                3 |             14 |
|  system_top_i/clk_wiz_0/inst/clk_out1 | system_top_i/I2S_IP_0/U0/u_I2S_ADAU1761_axi_lite_inst/u_I2S_ADAU1761_axi_lite_module_inst/aw_transfer                                                                                       | system_top_i/I2S_IP_0/U0/u_I2S_ADAU1761_axi_lite_inst/u_I2S_ADAU1761_axi_lite_module_inst/reset                                           |                3 |             14 |
|  system_top_i/clk_wiz_0/inst/clk_out1 | system_top_i/I2C_ip_0/U0/u_I2C_ADAU1761_axi_lite_inst/u_I2C_ADAU1761_axi_lite_module_inst/aw_transfer                                                                                       | system_top_i/I2C_ip_0/U0/u_I2C_ADAU1761_axi_lite_inst/u_I2C_ADAU1761_axi_lite_module_inst/reset                                           |                3 |             14 |
|  system_top_i/clk_wiz_0/inst/clk_out1 | system_top_i/Interconnect_IP/s00_couplers/auto_pc/inst/gen_axilite.gen_b2s_conv.axilite_b2s/SI_REG/b.b_pipe/p_1_in                                                                          |                                                                                                                                           |                2 |             14 |
|  system_top_i/clk_wiz_0/inst/clk_out1 | system_top_i/Interconnect_IP/s00_couplers/auto_pc/inst/gen_axilite.gen_b2s_conv.axilite_b2s/SI_REG/b.b_pipe/s_ready_i_reg_0                                                                 |                                                                                                                                           |                3 |             14 |
|  system_top_i/clk_wiz_0/inst/clk_out1 | system_top_i/Interconnect_IP/m02_couplers/auto_cc/inst/gen_clock_conv.gen_async_lite_conv.clock_conv_lite_fwd_ar/handshake/p_0_in                                                           |                                                                                                                                           |                2 |             14 |
|  system_top_i/clk_wiz_0/inst/clk_out3 | system_top_i/Audio_Fil_ip_0/U0/u_Audio_Fil_ip_axi4_stream_slave_inst/dut_enable                                                                                                             | system_top_i/Audio_Fil_ip_0/U0/u_Audio_Fil_ip_axi4_stream_slave_inst/fifo_rd_ack_reg_0                                                    |                5 |             14 |
|  system_top_i/clk_wiz_0/inst/clk_out3 | system_top_i/Audio_Fil_ip_0/U0/u_Audio_Fil_ip_axi_lite_inst/u_Audio_Fil_ip_axi_lite_module_inst/aw_transfer                                                                                 | system_top_i/Audio_Fil_ip_0/U0/u_Audio_Fil_ip_axi_lite_inst/u_Audio_Fil_ip_axi_lite_module_inst/reset                                     |                2 |             14 |
|  system_top_i/clk_wiz_0/inst/clk_out3 | system_top_i/Interconnect_IP/m02_couplers/auto_cc/inst/gen_clock_conv.gen_async_lite_conv.clock_conv_lite_fwd_aw/handshake/dest_hsdata_en                                                   |                                                                                                                                           |                2 |             14 |
|  system_top_i/clk_wiz_0/inst/clk_out3 | system_top_i/Interconnect_IP/m02_couplers/auto_cc/inst/gen_clock_conv.gen_async_lite_conv.clock_conv_lite_fwd_ar/handshake/dest_hsdata_en                                                   |                                                                                                                                           |                6 |             14 |
|  system_top_i/clk_wiz_0/inst/clk_out1 |                                                                                                                                                                                             | system_top_i/DUT_to_I2S/inst/gen_fifo.xpm_fifo_axis_inst/xpm_fifo_base_inst/xpm_fifo_rst_inst/gen_rst_ic.fifo_rd_rst_ic_reg_0             |                6 |             15 |
|  system_top_i/clk_wiz_0/inst/clk_out1 | system_top_i/Interconnect_IP/xbar/inst/gen_sasd.crossbar_sasd_0/reg_slice_r/aa_rready                                                                                                       |                                                                                                                                           |                6 |             15 |
|  system_top_i/clk_wiz_0/inst/clk_out3 |                                                                                                                                                                                             | system_top_i/I2S_to_DUT/inst/gen_fifo.xpm_fifo_axis_inst/xpm_fifo_base_inst/xpm_fifo_rst_inst/gen_rst_ic.fifo_rd_rst_ic_reg_0             |                6 |             15 |
|  system_top_i/clk_wiz_0/inst/clk_out1 | system_top_i/I2C_ip_0/U0/u_I2C_ADAU1761_dut_inst/u_I2C_ADAU1761_src_I2C_ADAU1761/u_i2c_cfg/wait_rsvd                                                                                        | system_top_i/I2C_ip_0/U0/u_I2C_ADAU1761_axi_lite_inst/u_I2C_ADAU1761_axi_lite_module_inst/AR[0]                                           |                3 |             16 |
|  system_top_i/clk_wiz_0/inst/clk_out1 | system_top_i/Interconnect_IP/s00_couplers/auto_pc/inst/gen_axilite.gen_b2s_conv.axilite_b2s/WR.aw_channel_0/aw_cmd_fsm_0/b_push                                                             |                                                                                                                                           |                3 |             16 |
|  system_top_i/clk_wiz_0/inst/clk_out1 |                                                                                                                                                                                             | system_top_i/Interconnect_IP/m02_couplers/auto_cc/inst/gen_clock_conv.gen_async_lite_conv.clock_conv_lite_fwd_aw/s_areset_dly_reg[3]_0[0] |                4 |             20 |
|  system_top_i/clk_wiz_0/inst/clk_out3 |                                                                                                                                                                                             | system_top_i/Interconnect_IP/m02_couplers/auto_cc/inst/gen_clock_conv.gen_async_lite_conv.clock_conv_lite_fwd_aw/m_areset_dly_reg[3]_0[0] |                4 |             20 |
|  system_top_i/clk_wiz_0/inst/clk_out1 | system_top_i/DUT_to_I2S/inst/gen_fifo.xpm_fifo_axis_inst/xpm_fifo_base_inst/rdpp1_inst/E[0]                                                                                                 | system_top_i/DUT_to_I2S/inst/gen_fifo.xpm_fifo_axis_inst/xpm_fifo_base_inst/xpm_fifo_rst_inst/gen_rst_ic.fifo_rd_rst_ic_reg_0             |                6 |             21 |
|  system_top_i/clk_wiz_0/inst/clk_out3 | system_top_i/I2S_to_DUT/inst/gen_fifo.xpm_fifo_axis_inst/xpm_fifo_base_inst/rdpp1_inst/E[0]                                                                                                 | system_top_i/I2S_to_DUT/inst/gen_fifo.xpm_fifo_axis_inst/xpm_fifo_base_inst/xpm_fifo_rst_inst/gen_rst_ic.fifo_rd_rst_ic_reg_0             |                6 |             21 |
|  system_top_i/clk_wiz_0/inst/clk_out3 | system_top_i/Audio_Fil_ip_0/U0/u_Audio_Fil_ip_axi_lite_inst/u_Audio_Fil_ip_axi_lite_module_inst/wr_enb_1_reg_1[0]                                                                           | system_top_i/Audio_Fil_ip_0/U0/u_Audio_Fil_ip_reset_sync_inst/reset                                                                       |                3 |             24 |
|  system_top_i/clk_wiz_0/inst/clk_out3 | system_top_i/Audio_Fil_ip_0/U0/u_Audio_Fil_ip_axi_lite_inst/u_Audio_Fil_ip_axi_lite_module_inst/wr_enb_1_reg_2[0]                                                                           | system_top_i/Audio_Fil_ip_0/U0/u_Audio_Fil_ip_reset_sync_inst/reset                                                                       |                5 |             24 |
|  system_top_i/clk_wiz_0/inst/clk_out1 | system_top_i/Interconnect_IP/s00_couplers/auto_pc/inst/gen_axilite.gen_b2s_conv.axilite_b2s/RD.ar_channel_0/ar_cmd_fsm_0/E[0]                                                               |                                                                                                                                           |               10 |             26 |
|  system_top_i/clk_wiz_0/inst/clk_out1 | system_top_i/Interconnect_IP/s00_couplers/auto_pc/inst/gen_axilite.gen_b2s_conv.axilite_b2s/WR.aw_channel_0/aw_cmd_fsm_0/E[0]                                                               |                                                                                                                                           |                9 |             26 |
|  system_top_i/clk_wiz_0/inst/clk_out1 | system_top_i/I2C_ip_0/U0/u_I2C_ADAU1761_dut_inst/u_I2C_ADAU1761_src_I2C_ADAU1761/u_I2C_ADAU1761_tc/enb                                                                                      | system_top_i/I2C_ip_0/U0/u_I2C_ADAU1761_axi_lite_inst/u_I2C_ADAU1761_axi_lite_module_inst/AR[0]                                           |               21 |             29 |
|  system_top_i/clk_wiz_0/inst/clk_out1 | system_top_i/Interconnect_IP/xbar/inst/gen_sasd.crossbar_sasd_0/addr_arbiter_inst/p_0_in1_in                                                                                                | system_top_i/Interconnect_IP/xbar/inst/gen_sasd.crossbar_sasd_0/addr_arbiter_inst/SR[0]                                                   |               10 |             30 |
|  system_top_i/clk_wiz_0/inst/clk_out1 | system_top_i/I2S_to_DUT/inst/gen_fifo.xpm_fifo_axis_inst/xpm_fifo_base_inst/xpm_fifo_rst_inst/E[0]                                                                                          | system_top_i/I2S_to_DUT/inst/gen_fifo.xpm_fifo_axis_inst/xpm_fifo_base_inst/xpm_fifo_rst_inst/wrst_busy                                   |                8 |             31 |
|  system_top_i/clk_wiz_0/inst/clk_out3 | system_top_i/DUT_to_I2S/inst/gen_fifo.xpm_fifo_axis_inst/xpm_fifo_base_inst/xpm_fifo_rst_inst/E[0]                                                                                          | system_top_i/DUT_to_I2S/inst/gen_fifo.xpm_fifo_axis_inst/xpm_fifo_base_inst/xpm_fifo_rst_inst/wrst_busy                                   |                8 |             31 |
|  system_top_i/clk_wiz_0/inst/clk_out3 | system_top_i/Audio_Fil_ip_0/U0/u_Audio_Fil_ip_axi_lite_inst/u_Audio_Fil_ip_axi_lite_module_inst/E[0]                                                                                        | system_top_i/Audio_Fil_ip_0/U0/u_Audio_Fil_ip_reset_sync_inst/reset                                                                       |                6 |             32 |
|  system_top_i/clk_wiz_0/inst/clk_out1 | system_top_i/I2S_IP_0/U0/u_I2S_ADAU1761_axi_lite_inst/u_I2S_ADAU1761_axi_lite_module_inst/gen_no_arbiter.m_amesg_i_reg[4][0]                                                                | system_top_i/I2S_IP_0/U0/u_I2S_ADAU1761_axi_lite_inst/u_I2S_ADAU1761_axi_lite_module_inst/AR[0]                                           |                9 |             32 |
|  system_top_i/clk_wiz_0/inst/clk_out1 | system_top_i/I2S_IP_0/U0/u_I2S_ADAU1761_dut_inst/u_I2S_ADAU1761_src_Subsystem/u_I2S_Subsystem/u_I2S_controller/BCLK_shiftreg_reg[0]_0                                                       | system_top_i/I2S_IP_0/U0/u_I2S_ADAU1761_axi_lite_inst/u_I2S_ADAU1761_axi_lite_module_inst/AR[0]                                           |                8 |             32 |
|  system_top_i/clk_wiz_0/inst/clk_out1 | system_top_i/I2S_IP_0/U0/u_I2S_ADAU1761_axi_lite_inst/u_I2S_ADAU1761_axi_lite_module_inst/w_transfer                                                                                        | system_top_i/I2S_IP_0/U0/u_I2S_ADAU1761_axi_lite_inst/u_I2S_ADAU1761_axi_lite_module_inst/reset                                           |                7 |             32 |
|  system_top_i/clk_wiz_0/inst/clk_out3 | system_top_i/Audio_Fil_ip_0/U0/u_Audio_Fil_ip_axi_lite_inst/u_Audio_Fil_ip_axi_lite_module_inst/top_rd_enb                                                                                  | system_top_i/Audio_Fil_ip_0/U0/u_Audio_Fil_ip_axi_lite_inst/u_Audio_Fil_ip_axi_lite_module_inst/reset                                     |               16 |             32 |
|  system_top_i/clk_wiz_0/inst/clk_out3 | system_top_i/Audio_Fil_ip_0/U0/u_Audio_Fil_ip_axi_lite_inst/u_Audio_Fil_ip_axi_lite_module_inst/w_transfer                                                                                  | system_top_i/Audio_Fil_ip_0/U0/u_Audio_Fil_ip_axi_lite_inst/u_Audio_Fil_ip_axi_lite_module_inst/reset                                     |                9 |             32 |
|  system_top_i/clk_wiz_0/inst/clk_out3 | system_top_i/Audio_Fil_ip_0/U0/u_Audio_Fil_ip_axi4_stream_slave_inst/Push                                                                                                                   | system_top_i/Audio_Fil_ip_0/U0/u_Audio_Fil_ip_reset_sync_inst/clear                                                                       |                8 |             32 |
|  system_top_i/clk_wiz_0/inst/clk_out1 | system_top_i/Interconnect_IP/s00_couplers/auto_pc/inst/gen_axilite.gen_b2s_conv.axilite_b2s/RD.r_channel_0/rd_data_fifo_0/wr_en0                                                            |                                                                                                                                           |                9 |             34 |
|  system_top_i/clk_wiz_0/inst/clk_out3 | system_top_i/Interconnect_IP/m02_couplers/auto_cc/inst/gen_clock_conv.gen_async_lite_conv.clock_conv_lite_resp_r/handshake/p_0_in                                                           |                                                                                                                                           |                7 |             34 |
|  system_top_i/clk_wiz_0/inst/clk_out1 | system_top_i/Interconnect_IP/m02_couplers/auto_cc/inst/gen_clock_conv.gen_async_lite_conv.clock_conv_lite_resp_r/handshake/dest_hsdata_en                                                   |                                                                                                                                           |                8 |             34 |
|  system_top_i/clk_wiz_0/inst/clk_out1 | system_top_i/Interconnect_IP/xbar/inst/gen_sasd.crossbar_sasd_0/addr_arbiter_inst/E[0]                                                                                                      |                                                                                                                                           |                6 |             35 |
|  system_top_i/clk_wiz_0/inst/clk_out1 | system_top_i/Interconnect_IP/m02_couplers/auto_cc/inst/gen_clock_conv.gen_async_lite_conv.clock_conv_lite_fwd_w/handshake/p_0_in                                                            |                                                                                                                                           |                7 |             36 |
|  system_top_i/clk_wiz_0/inst/clk_out3 | system_top_i/Interconnect_IP/m02_couplers/auto_cc/inst/gen_clock_conv.gen_async_lite_conv.clock_conv_lite_fwd_w/handshake/dest_hsdata_en                                                    |                                                                                                                                           |                5 |             36 |
|  system_top_i/clk_wiz_0/inst/clk_out1 |                                                                                                                                                                                             | system_top_i/I2S_IP_0/U0/u_I2S_ADAU1761_axi_lite_inst/u_I2S_ADAU1761_axi_lite_module_inst/AR[0]                                           |               12 |             38 |
|  system_top_i/clk_wiz_0/inst/clk_out3 |                                                                                                                                                                                             | system_top_i/Audio_Fil_ip_0/U0/u_Audio_Fil_ip_reset_sync_inst/reset                                                                       |               16 |             39 |
|  system_top_i/clk_wiz_0/inst/clk_out3 | system_top_i/Audio_Fil_ip_0/U0/u_Audio_Fil_ip_axi4_stream_slave_inst/u_Audio_Fil_ip_fifo_data_inst/cache_wr_en                                                                              | system_top_i/Audio_Fil_ip_0/U0/u_Audio_Fil_ip_reset_sync_inst/reset                                                                       |               12 |             46 |
|  system_top_i/clk_wiz_0/inst/clk_out3 | system_top_i/Audio_Fil_ip_0/U0/u_Audio_Fil_ip_axi4_stream_slave_inst/u_Audio_Fil_ip_fifo_data_inst/w_d1_reg_n_0                                                                             | system_top_i/Audio_Fil_ip_0/U0/u_Audio_Fil_ip_reset_sync_inst/reset                                                                       |               11 |             46 |
|  system_top_i/clk_wiz_0/inst/clk_out3 | system_top_i/Audio_Fil_ip_0/U0/u_Audio_Fil_ip_axi4_stream_slave_inst/u_Audio_Fil_ip_fifo_data_inst/out_wr_en                                                                                | system_top_i/Audio_Fil_ip_0/U0/u_Audio_Fil_ip_reset_sync_inst/reset                                                                       |               16 |             46 |
|  system_top_i/clk_wiz_0/inst/clk_out1 | system_top_i/Interconnect_IP/s00_couplers/auto_pc/inst/gen_axilite.gen_b2s_conv.axilite_b2s/SI_REG/r.r_pipe/s_ready_i_reg_0                                                                 |                                                                                                                                           |                7 |             47 |
|  system_top_i/clk_wiz_0/inst/clk_out1 | system_top_i/Interconnect_IP/s00_couplers/auto_pc/inst/gen_axilite.gen_b2s_conv.axilite_b2s/SI_REG/r.r_pipe/p_1_in                                                                          |                                                                                                                                           |                7 |             47 |
|  system_top_i/clk_wiz_0/inst/clk_out1 | system_top_i/I2S_IP_0/U0/u_I2S_ADAU1761_dut_inst/u_I2S_ADAU1761_src_Subsystem/u_I2S_Subsystem/u_I2S_controller/Audio_left_out_reg                                                           | system_top_i/I2S_IP_0/U0/u_I2S_ADAU1761_axi_lite_inst/u_I2S_ADAU1761_axi_lite_module_inst/AR[0]                                           |                9 |             48 |
|  system_top_i/clk_wiz_0/inst/clk_out1 | system_top_i/I2S_IP_0/U0/u_I2S_ADAU1761_axi4_stream_master_inst/u_I2S_ADAU1761_fifo_data_inst/u_I2S_ADAU1761_fifo_data_classic_inst/w_d1                                                    | system_top_i/I2S_IP_0/U0/u_I2S_ADAU1761_axi_lite_inst/u_I2S_ADAU1761_axi_lite_module_inst/AR[0]                                           |               11 |             48 |
|  system_top_i/clk_wiz_0/inst/clk_out1 | system_top_i/I2S_IP_0/U0/u_I2S_ADAU1761_axi4_stream_slave_inst/u_I2S_ADAU1761_fifo_data_inst/u_I2S_ADAU1761_fifo_data_classic_inst/w_d1                                                     | system_top_i/I2S_IP_0/U0/u_I2S_ADAU1761_axi_lite_inst/u_I2S_ADAU1761_axi_lite_module_inst/AR[0]                                           |               12 |             48 |
|  system_top_i/clk_wiz_0/inst/clk_out1 | system_top_i/I2S_IP_0/U0/u_I2S_ADAU1761_axi4_stream_master_inst/u_I2S_ADAU1761_fifo_data_inst/out_wr_en                                                                                     | system_top_i/I2S_IP_0/U0/u_I2S_ADAU1761_axi_lite_inst/u_I2S_ADAU1761_axi_lite_module_inst/AR[0]                                           |               18 |             48 |
|  system_top_i/clk_wiz_0/inst/clk_out1 | system_top_i/I2S_IP_0/U0/u_I2S_ADAU1761_axi4_stream_master_inst/u_I2S_ADAU1761_fifo_data_inst/cache_wr_en                                                                                   | system_top_i/I2S_IP_0/U0/u_I2S_ADAU1761_axi_lite_inst/u_I2S_ADAU1761_axi_lite_module_inst/AR[0]                                           |               13 |             48 |
|  system_top_i/clk_wiz_0/inst/clk_out1 | system_top_i/I2S_IP_0/U0/u_I2S_ADAU1761_axi4_stream_slave_inst/u_I2S_ADAU1761_fifo_data_inst/out_wr_en                                                                                      | system_top_i/I2S_IP_0/U0/u_I2S_ADAU1761_axi_lite_inst/u_I2S_ADAU1761_axi_lite_module_inst/AR[0]                                           |               14 |             48 |
|  system_top_i/clk_wiz_0/inst/clk_out3 | system_top_i/Audio_Fil_ip_0/U0/u_Audio_Fil_ip_axi4_stream_master_inst/u_Audio_Fil_ip_fifo_data_OUT_inst/cache_wr_en                                                                         | system_top_i/Audio_Fil_ip_0/U0/u_Audio_Fil_ip_reset_sync_inst/reset                                                                       |               14 |             48 |
|  system_top_i/clk_wiz_0/inst/clk_out1 | system_top_i/I2S_IP_0/U0/u_I2S_ADAU1761_axi4_stream_slave_inst/u_I2S_ADAU1761_fifo_data_inst/cache_wr_en                                                                                    | system_top_i/I2S_IP_0/U0/u_I2S_ADAU1761_axi_lite_inst/u_I2S_ADAU1761_axi_lite_module_inst/AR[0]                                           |               11 |             48 |
|  system_top_i/clk_wiz_0/inst/clk_out3 | system_top_i/Audio_Fil_ip_0/U0/u_Audio_Fil_ip_axi4_stream_master_inst/u_Audio_Fil_ip_fifo_data_OUT_inst/w_d1_reg_n_0                                                                        | system_top_i/Audio_Fil_ip_0/U0/u_Audio_Fil_ip_reset_sync_inst/reset                                                                       |               11 |             48 |
|  system_top_i/clk_wiz_0/inst/clk_out3 | system_top_i/Audio_Fil_ip_0/U0/u_Audio_Fil_ip_axi4_stream_master_inst/u_Audio_Fil_ip_fifo_data_OUT_inst/out_wr_en                                                                           | system_top_i/Audio_Fil_ip_0/U0/u_Audio_Fil_ip_reset_sync_inst/reset                                                                       |               15 |             48 |
|  system_top_i/clk_wiz_0/inst/clk_out1 | system_top_i/Interconnect_IP/s00_couplers/auto_pc/inst/gen_axilite.gen_b2s_conv.axilite_b2s/WR.aw_channel_0/aw_cmd_fsm_0/m_valid_i_reg[0]                                                   |                                                                                                                                           |                8 |             52 |
|  system_top_i/clk_wiz_0/inst/clk_out1 | system_top_i/Interconnect_IP/s00_couplers/auto_pc/inst/gen_axilite.gen_b2s_conv.axilite_b2s/RD.ar_channel_0/ar_cmd_fsm_0/FSM_sequential_state_reg[1]_1[0]                                   |                                                                                                                                           |                9 |             52 |
|  system_top_i/clk_wiz_0/inst/clk_out1 | system_top_i/Interconnect_IP/s00_couplers/auto_pc/inst/gen_axilite.gen_b2s_conv.axilite_b2s/SI_REG/aw.aw_pipe/s_ready_i_reg_0                                                               |                                                                                                                                           |                9 |             52 |
|  system_top_i/clk_wiz_0/inst/clk_out1 | system_top_i/Interconnect_IP/s00_couplers/auto_pc/inst/gen_axilite.gen_b2s_conv.axilite_b2s/SI_REG/ar.ar_pipe/s_ready_i_reg_0                                                               |                                                                                                                                           |               10 |             52 |
|  system_top_i/clk_wiz_0/inst/clk_out1 | system_top_i/I2S_IP_0/U0/u_I2S_ADAU1761_dut_inst/u_I2S_ADAU1761_src_Subsystem/u_I2S_Subsystem/u_I2S_controller/LRCLK_reg                                                                    | system_top_i/I2S_IP_0/U0/u_I2S_ADAU1761_axi_lite_inst/u_I2S_ADAU1761_axi_lite_module_inst/AR[0]                                           |               15 |             58 |
|  system_top_i/clk_wiz_0/inst/clk_out1 | system_top_i/I2S_IP_0/U0/u_I2S_ADAU1761_axi4_stream_master_inst/u_I2S_ADAU1761_fifo_data_inst/u_I2S_ADAU1761_fifo_data_classic_inst/u_I2S_ADAU1761_fifo_data_classic_ram_generic/wr_en      |                                                                                                                                           |                8 |             64 |
|  system_top_i/clk_wiz_0/inst/clk_out1 | system_top_i/I2S_IP_0/U0/u_I2S_ADAU1761_axi4_stream_slave_inst/u_I2S_ADAU1761_fifo_data_inst/u_I2S_ADAU1761_fifo_data_classic_inst/u_I2S_ADAU1761_fifo_data_classic_ram/wr_en               |                                                                                                                                           |                8 |             64 |
|  system_top_i/clk_wiz_0/inst/clk_out3 | system_top_i/Audio_Fil_ip_0/U0/u_Audio_Fil_ip_axi4_stream_master_inst/u_Audio_Fil_ip_fifo_data_OUT_inst/u_Audio_Fil_ip_fifo_data_OUT_classic_ram_generic/wr_en                              |                                                                                                                                           |                8 |             64 |
|  system_top_i/clk_wiz_0/inst/clk_out3 | system_top_i/Audio_Fil_ip_0/U0/u_Audio_Fil_ip_axi4_stream_slave_inst/u_Audio_Fil_ip_fifo_data_inst/u_Audio_Fil_ip_fifo_data_classic_ram/wr_en                                               |                                                                                                                                           |                8 |             64 |
|  system_top_i/clk_wiz_0/inst/clk_out1 | system_top_i/I2S_IP_0/U0/u_I2S_ADAU1761_axi4_stream_slave_inst/u_I2S_ADAU1761_fifo_data_inst/E[0]                                                                                           | system_top_i/I2S_IP_0/U0/u_I2S_ADAU1761_axi_lite_inst/u_I2S_ADAU1761_axi_lite_module_inst/AR[0]                                           |               21 |             96 |
|  system_top_i/clk_wiz_0/inst/clk_out1 | system_top_i/I2S_IP_0/U0/u_I2S_ADAU1761_axi_lite_inst/u_I2S_ADAU1761_addr_decoder_inst/E[0]                                                                                                 | system_top_i/I2S_IP_0/U0/u_I2S_ADAU1761_axi_lite_inst/u_I2S_ADAU1761_axi_lite_module_inst/AR[0]                                           |               32 |            138 |
|  system_top_i/clk_wiz_0/inst/clk_out3 | system_top_i/Audio_Fil_ip_0/U0/u_Audio_Fil_ip_axi4_stream_slave_inst/dut_enable                                                                                                             | system_top_i/Audio_Fil_ip_0/U0/u_Audio_Fil_ip_reset_sync_inst/reset                                                                       |               42 |            149 |
|  system_top_i/clk_wiz_0/inst/clk_out3 |                                                                                                                                                                                             |                                                                                                                                           |               58 |            251 |
|  system_top_i/clk_wiz_0/inst/clk_out1 |                                                                                                                                                                                             |                                                                                                                                           |               90 |            370 |
+---------------------------------------+---------------------------------------------------------------------------------------------------------------------------------------------------------------------------------------------+-------------------------------------------------------------------------------------------------------------------------------------------+------------------+----------------+


