Copyright 1986-2019 Xilinx, Inc. All Rights Reserved.
----------------------------------------------------------------------------------------------------------------------------------------------------------------------------
| Tool Version     : Vivado v.2019.2 (win64) Build 2708876 Wed Nov  6 21:40:23 MST 2019
| Date             : Mon Nov  1 21:13:01 2021
| Host             : jitopc running 64-bit major release  (build 9200)
| Command          : report_power -file system_top_wrapper_power_routed.rpt -pb system_top_wrapper_power_summary_routed.pb -rpx system_top_wrapper_power_routed.rpx
| Design           : system_top_wrapper
| Device           : xc7z020clg484-1
| Design State     : routed
| Grade            : commercial
| Process          : typical
| Characterization : Production
----------------------------------------------------------------------------------------------------------------------------------------------------------------------------

Power Report

Table of Contents
-----------------
1. Summary
1.1 On-Chip Components
1.2 Power Supply Summary
1.3 Confidence Level
2. Settings
2.1 Environment
2.2 Clock Constraints
3. Detailed Reports
3.1 By Hierarchy

1. Summary
----------

+--------------------------+--------------+
| Total On-Chip Power (W)  | 1.820        |
| Design Power Budget (W)  | Unspecified* |
| Power Budget Margin (W)  | NA           |
| Dynamic (W)              | 1.672        |
| Device Static (W)        | 0.148        |
| Effective TJA (C/W)      | 11.5         |
| Max Ambient (C)          | 64.0         |
| Junction Temperature (C) | 46.0         |
| Confidence Level         | Low          |
| Setting File             | ---          |
| Simulation Activity File | ---          |
| Design Nets Matched      | NA           |
+--------------------------+--------------+
* Specify Design Power Budget using, set_operating_conditions -design_power_budget <value in Watts>


1.1 On-Chip Components
----------------------

+--------------------------+-----------+----------+-----------+-----------------+
| On-Chip                  | Power (W) | Used     | Available | Utilization (%) |
+--------------------------+-----------+----------+-----------+-----------------+
| Clocks                   |     0.009 |        8 |       --- |             --- |
| Slice Logic              |     0.004 |     6419 |       --- |             --- |
|   LUT as Logic           |     0.003 |     1791 |     53200 |            3.37 |
|   Register               |    <0.001 |     3173 |    106400 |            2.98 |
|   CARRY4                 |    <0.001 |       92 |     13300 |            0.69 |
|   LUT as Distributed RAM |    <0.001 |      132 |     17400 |            0.76 |
|   LUT as Shift Register  |    <0.001 |       63 |     17400 |            0.36 |
|   Others                 |     0.000 |      347 |       --- |             --- |
| Signals                  |     0.005 |     4966 |       --- |             --- |
| Block RAM                |     0.006 |        4 |       140 |            2.86 |
| MMCM                     |     0.115 |        1 |         4 |           25.00 |
| DSPs                     |     0.002 |        4 |       220 |            1.82 |
| I/O                      |     0.003 |        9 |       200 |            4.50 |
| PS7                      |     1.529 |        1 |       --- |             --- |
| Static Power             |     0.148 |          |           |                 |
| Total                    |     1.820 |          |           |                 |
+--------------------------+-----------+----------+-----------+-----------------+


1.2 Power Supply Summary
------------------------

+-----------+-------------+-----------+-------------+------------+
| Source    | Voltage (V) | Total (A) | Dynamic (A) | Static (A) |
+-----------+-------------+-----------+-------------+------------+
| Vccint    |       1.000 |     0.042 |       0.026 |      0.016 |
| Vccaux    |       1.800 |     0.079 |       0.064 |      0.016 |
| Vcco33    |       3.300 |     0.002 |       0.001 |      0.001 |
| Vcco25    |       2.500 |     0.000 |       0.000 |      0.000 |
| Vcco18    |       1.800 |     0.000 |       0.000 |      0.000 |
| Vcco15    |       1.500 |     0.000 |       0.000 |      0.000 |
| Vcco135   |       1.350 |     0.000 |       0.000 |      0.000 |
| Vcco12    |       1.200 |     0.000 |       0.000 |      0.000 |
| Vccaux_io |       1.800 |     0.000 |       0.000 |      0.000 |
| Vccbram   |       1.000 |     0.002 |       0.000 |      0.001 |
| MGTAVcc   |       1.000 |     0.000 |       0.000 |      0.000 |
| MGTAVtt   |       1.200 |     0.000 |       0.000 |      0.000 |
| MGTVccaux |       1.800 |     0.000 |       0.000 |      0.000 |
| Vccpint   |       1.000 |     0.749 |       0.717 |      0.032 |
| Vccpaux   |       1.800 |     0.061 |       0.051 |      0.010 |
| Vccpll    |       1.800 |     0.017 |       0.014 |      0.003 |
| Vcco_ddr  |       1.500 |     0.459 |       0.457 |      0.002 |
| Vcco_mio0 |       3.300 |     0.003 |       0.002 |      0.001 |
| Vcco_mio1 |       1.800 |     0.003 |       0.002 |      0.001 |
| Vccadc    |       1.800 |     0.020 |       0.000 |      0.020 |
+-----------+-------------+-----------+-------------+------------+


1.3 Confidence Level
--------------------

+-----------------------------+------------+--------------------------------------------------------+------------------------------------------------------------------------------------------------------------+
| User Input Data             | Confidence | Details                                                | Action                                                                                                     |
+-----------------------------+------------+--------------------------------------------------------+------------------------------------------------------------------------------------------------------------+
| Design implementation state | High       | Design is routed                                       |                                                                                                            |
| Clock nodes activity        | High       | User specified more than 95% of clocks                 |                                                                                                            |
| I/O nodes activity          | Low        | More than 75% of inputs are missing user specification | Provide missing input activity with simulation results or by editing the "By Resource Type -> I/Os" view   |
| Internal nodes activity     | Medium     | User specified less than 25% of internal nodes         | Provide missing internal nodes activity with simulation results or by editing the "By Resource Type" views |
| Device models               | High       | Device models are Production                           |                                                                                                            |
|                             |            |                                                        |                                                                                                            |
| Overall confidence level    | Low        |                                                        |                                                                                                            |
+-----------------------------+------------+--------------------------------------------------------+------------------------------------------------------------------------------------------------------------+


2. Settings
-----------

2.1 Environment
---------------

+-----------------------+------------------------+
| Ambient Temp (C)      | 25.0                   |
| ThetaJA (C/W)         | 11.5                   |
| Airflow (LFM)         | 250                    |
| Heat Sink             | none                   |
| ThetaSA (C/W)         | 0.0                    |
| Board Selection       | medium (10"x10")       |
| # of Board Layers     | 8to11 (8 to 11 Layers) |
| Board Temperature (C) | 25.0                   |
+-----------------------+------------------------+


2.2 Clock Constraints
---------------------

+---------------------------------+-------------------------------------------------------------+-----------------+
| Clock                           | Domain                                                      | Constraint (ns) |
+---------------------------------+-------------------------------------------------------------+-----------------+
| clk_fpga_0                      | system_top_i/processing_system/inst/FCLK_CLK0               |            10.0 |
| clk_fpga_0                      | system_top_i/processing_system/inst/FCLK_CLK_unbuffered[0]  |            10.0 |
| clk_out1_system_top_clk_wiz_0_0 | system_top_i/clk_wiz_0/inst/clk_out1_system_top_clk_wiz_0_0 |            20.0 |
| clk_out2_system_top_clk_wiz_0_0 | system_top_i/clk_wiz_0/inst/clk_out2_system_top_clk_wiz_0_0 |            41.7 |
| clk_out3_system_top_clk_wiz_0_0 | system_top_i/clk_wiz_0/inst/clk_out3_system_top_clk_wiz_0_0 |            12.4 |
| clkfbout_system_top_clk_wiz_0_0 | system_top_i/clk_wiz_0/inst/clkfbout_system_top_clk_wiz_0_0 |            10.0 |
+---------------------------------+-------------------------------------------------------------+-----------------+


3. Detailed Reports
-------------------

3.1 By Hierarchy
----------------

+-----------------------+-----------+
| Name                  | Power (W) |
+-----------------------+-----------+
| system_top_wrapper    |     1.672 |
|   system_top_i        |     1.669 |
|     Audio_Fil_ip_0    |     0.008 |
|       U0              |     0.008 |
|     DUT_to_I2S        |     0.005 |
|       inst            |     0.005 |
|     I2S_IP_0          |     0.003 |
|       U0              |     0.003 |
|     I2S_to_DUT        |     0.005 |
|       inst            |     0.005 |
|     Interconnect_IP   |     0.003 |
|       s00_couplers    |     0.002 |
|     clk_wiz_0         |     0.116 |
|       inst            |     0.116 |
|     processing_system |     1.529 |
|       inst            |     1.529 |
+-----------------------+-----------+


